#########
#  xox..#
#   #####
#########

#######
#    .#
#     #
# xx  #
#O    #
#######

######
# .###
#  ###
#Xo  #
#  x #
#  ###
######

########
#  #####
#  #####
#  #####
#.xx xo#
#  . . #
#  #####
########

########
#      #
# xXXX #
# X  X #
# X  X #
# XXXO #
#      #
########

########
##  X  #
##  o  #
###x#.##
##  #  #
## x#. #
##  #  #
## ## ##
#  X X #
#   X  #
###   ##
########

########
###   ##
# xx.. #
#  .o# #
## #   #
## xX ##
####  ##
########

##########
######  ##
# x  x  ##
# #  .# ##
#  . #.o #
##x# X   #
##   #####
##########

#########
###   ###
##      #
##X#X#X #
## #ox ##
## # #.##
#      ##
#   #  ##
#########

###########
#  ##### .#
# O##### .#
#    #    #
#xx x     #
#. #####x #
#  #####  #
###########

##########
#  #######
#  . . . #
#.xx x xo#
#  #######
#  #######
#  #######
##########

###############
###########  ##
###########o ##
#   #   ###   #
#   xx# ###.# #
####  x    .  #
###  ######.# #
###  ######   #
###  ##########
###############

#########
####   ##
##      #
## X x. #
#  X#x.##
# o #  ##
#########

########
## .. ##
#  .. ##
# x# x##
## ## ##
# x  x #
#    o #
########

###########
#     #####
# ### #   #
#  ...    #
## ####  ##
## # o#  ##
##  xx # ##
##     x ##
#####  ####
###########

########
#      #
#  .x. #
## xox #
## .x. #
##     #
########

#########
###  ####
### .  ##
#  X #o##
# X .  ##
##  #x###
##   x  #
#####   #
#########

#############
#...#####   #
#        x# #
# .  # x x  #
######## #o##
####### x  ##
#######   ###
#############

########
##  ####
## o. .#
##  . .#
## ## ##
## #   #
## xx  #
# x x ##
#    ###
########

##########
#####   ##
####    ##
####  .###
###  #. .#
###x##.  #
##    # ##
#  xx## ##
#o#x    ##
#   ##  ##
##########

#######
##!####
# x  ##
#    ##
##@#  #
##    #
##.####
#######

###########
###  ######
###  ######
###.xX    #
#    #. x.#
# x#...# ##
#  ## # x##
# x    x  #
#  # o#   #
####  ##  #
###########

############
######    ##
###### x   #
#####  x   #
#####  x ###
###### x ###
###   ##x  #
#   #o  X. #
#     ##X###
#### ....###
####  ######
############

#########
#   o.  #
# XxXxX #
## . . ##
##xxXxx #
## . .  #
##  .  ##
###  ####
#########

###########
###  ######
###x.##  ##
## x   .x##
# ...# xx #
# xx o... #
##x.   x ##
##  ##.x###
######  ###
###########

